{
  "profiles": {
    "GatewayService": {
      "commandName": "Project",
      "launchBrowser": true,
      "environmentVariables": {
        "ASPNETCORE_ENVIRONMENT": "Development"
      },
      "applicationUrl": "https://localhost:65045;http://localhost:65048"
    }
  }
}